x = 258	y = 345
x = 258	y = 345
x = 258	y = 355
x = 258	y = 355
x = 258	y = 355
x = 258	y = 355
x = 258	y = 355
x = 258	y = 364
x = 258	y = 364
x = 258	y = 364
x = 258	y = 364
x = 258	y = 364
x = 261	y = 378
x = 261	y = 378
x = 261	y = 378
x = 261	y = 378
x = 261	y = 378
x = 266	y = 390
x = 266	y = 390
x = 266	y = 390
x = 266	y = 390
x = 266	y = 390
x = 270	y = 402
x = 270	y = 402
x = 270	y = 402
x = 270	y = 402
x = 270	y = 402
x = 270	y = 402
x = 277	y = 413
x = 277	y = 413
x = 277	y = 413
x = 277	y = 413
x = 277	y = 413
x = 284	y = 423
x = 284	y = 423
x = 284	y = 423
x = 284	y = 423
x = 284	y = 423
x = 296	y = 437
x = 296	y = 437
x = 296	y = 437
x = 296	y = 437
x = 296	y = 437
x = 296	y = 437
x = 313	y = 451
x = 313	y = 451
x = 313	y = 451
x = 313	y = 451
x = 313	y = 451
x = 332	y = 465
x = 332	y = 465
x = 332	y = 465
x = 332	y = 465
x = 332	y = 465
x = 359	y = 480
x = 359	y = 480
x = 359	y = 480
x = 359	y = 480
x = 359	y = 480
x = 382	y = 492
x = 382	y = 492
x = 382	y = 492
x = 382	y = 492
x = 382	y = 492
x = 382	y = 492
x = 405	y = 503
x = 405	y = 503
x = 405	y = 503
x = 405	y = 503
x = 405	y = 503
x = 428	y = 510
x = 428	y = 510
x = 428	y = 510
x = 428	y = 510
x = 428	y = 510
x = 447	y = 517
x = 447	y = 517
x = 447	y = 517
x = 447	y = 517
x = 447	y = 517
x = 469	y = 523
x = 469	y = 523
x = 469	y = 523
x = 469	y = 523
x = 469	y = 523
x = 484	y = 524
x = 484	y = 524
x = 484	y = 524
x = 484	y = 524
x = 484	y = 524
x = 484	y = 524
x = 498	y = 524
x = 498	y = 524
x = 498	y = 524
x = 498	y = 524
x = 513	y = 524
x = 513	y = 524
x = 513	y = 524
x = 513	y = 524
x = 513	y = 524
x = 526	y = 524
x = 526	y = 524
x = 526	y = 524
x = 526	y = 524
x = 526	y = 524
x = 526	y = 524
x = 541	y = 522
x = 541	y = 522
x = 541	y = 522
x = 541	y = 522
x = 541	y = 522
x = 561	y = 521
x = 561	y = 521
x = 561	y = 521
x = 561	y = 521
x = 561	y = 521
x = 584	y = 518
x = 584	y = 518
x = 584	y = 518
x = 584	y = 518
x = 584	y = 518
x = 584	y = 518
x = 605	y = 515
x = 605	y = 515
x = 605	y = 515
x = 605	y = 515
x = 605	y = 515
x = 628	y = 511
x = 628	y = 511
x = 628	y = 511
x = 628	y = 511
x = 628	y = 511
x = 647	y = 505
x = 647	y = 505
x = 647	y = 505
x = 647	y = 505
x = 647	y = 505
x = 647	y = 505
x = 669	y = 499
x = 669	y = 499
x = 669	y = 499
x = 669	y = 499
x = 669	y = 499
x = 669	y = 499
x = 684	y = 493
x = 684	y = 493
x = 684	y = 493
x = 684	y = 493
x = 684	y = 493
x = 695	y = 486
x = 695	y = 486
x = 695	y = 486
x = 695	y = 486
x = 695	y = 486
x = 695	y = 486
x = 705	y = 479
x = 705	y = 479
x = 705	y = 479
x = 705	y = 479
x = 705	y = 479
x = 705	y = 479
x = 714	y = 469
x = 714	y = 469
x = 714	y = 469
x = 714	y = 469
x = 714	y = 469
x = 722	y = 456
x = 722	y = 456
x = 722	y = 456
x = 722	y = 456
x = 722	y = 456
x = 731	y = 435
x = 731	y = 435
x = 731	y = 435
x = 731	y = 435
x = 731	y = 435
x = 731	y = 435
x = 740	y = 415
x = 740	y = 415
x = 740	y = 415
x = 740	y = 415
x = 740	y = 415
x = 740	y = 415
x = 747	y = 395
x = 747	y = 395
x = 747	y = 395
x = 747	y = 395
x = 747	y = 395
x = 750	y = 379
x = 750	y = 379
x = 750	y = 379
x = 750	y = 379
x = 750	y = 379
x = 753	y = 364
x = 753	y = 364
x = 753	y = 364
x = 753	y = 364
x = 753	y = 364
x = 753	y = 350
x = 753	y = 350
x = 753	y = 350
x = 753	y = 350
x = 753	y = 350
x = 753	y = 350
x = 753	y = 335
x = 753	y = 335
x = 753	y = 335
x = 753	y = 335
x = 753	y = 335
x = 753	y = 320
x = 753	y = 320
x = 753	y = 320
x = 753	y = 320
x = 753	y = 320
x = 750	y = 307
x = 750	y = 307
x = 750	y = 307
x = 750	y = 307
x = 750	y = 307
x = 750	y = 307
x = 748	y = 299
x = 748	y = 299
x = 748	y = 299
x = 748	y = 299
x = 748	y = 299
x = 748	y = 299
x = 747	y = 293
x = 747	y = 293
x = 747	y = 293
x = 747	y = 293
x = 747	y = 293
x = 746	y = 290
x = 746	y = 290
x = 746	y = 290
x = 746	y = 290
x = 746	y = 290
x = 746	y = 290
x = 745	y = 288
x = 745	y = 288
x = 745	y = 288
x = 745	y = 288
x = 745	y = 288
x = 744	y = 286
x = 744	y = 286
x = 744	y = 286
x = 744	y = 286
x = 744	y = 286
x = 744	y = 286
x = 742	y = 282
x = 742	y = 282
x = 742	y = 282
x = 742	y = 282
x = 742	y = 282
x = 738	y = 279
x = 738	y = 279
x = 738	y = 279
x = 738	y = 279
x = 738	y = 279
x = 729	y = 269
x = 729	y = 269
x = 729	y = 269
x = 729	y = 269
x = 729	y = 269
x = 729	y = 269
x = 716	y = 256
x = 716	y = 256
x = 716	y = 256
x = 716	y = 256
x = 716	y = 256
x = 698	y = 242
x = 698	y = 242
x = 698	y = 242
x = 698	y = 242
x = 698	y = 242
x = 698	y = 242
x = 679	y = 228
x = 679	y = 228
x = 679	y = 228
x = 679	y = 228
x = 679	y = 228
x = 661	y = 218
x = 661	y = 218
x = 661	y = 218
x = 661	y = 218
x = 661	y = 218
x = 644	y = 213
x = 644	y = 213
x = 644	y = 213
x = 644	y = 213
x = 644	y = 213
x = 644	y = 213
x = 631	y = 210
x = 631	y = 210
x = 631	y = 210
x = 631	y = 210
x = 631	y = 210
x = 616	y = 209
x = 616	y = 209
x = 616	y = 209
x = 616	y = 209
x = 616	y = 209
x = 597	y = 208
x = 597	y = 208
x = 597	y = 208
x = 597	y = 208
x = 597	y = 208
x = 597	y = 208
x = 573	y = 208
x = 573	y = 208
x = 573	y = 208
x = 573	y = 208
x = 573	y = 208
x = 573	y = 208
x = 548	y = 208
x = 548	y = 208
x = 548	y = 208
x = 548	y = 208
x = 548	y = 208
x = 548	y = 208
x = 522	y = 210
x = 522	y = 210
x = 522	y = 210
x = 522	y = 210
x = 522	y = 210
x = 496	y = 216
x = 496	y = 216
x = 496	y = 216
x = 496	y = 216
x = 496	y = 216
x = 496	y = 216
x = 469	y = 222
x = 469	y = 222
x = 469	y = 222
x = 469	y = 222
x = 469	y = 222
x = 444	y = 232
x = 444	y = 232
x = 444	y = 232
x = 444	y = 232
x = 444	y = 232
x = 424	y = 239
x = 424	y = 239
x = 424	y = 239
x = 424	y = 239
x = 424	y = 239
x = 424	y = 239
x = 404	y = 247
x = 404	y = 247
x = 404	y = 247
x = 404	y = 247
x = 404	y = 247
x = 404	y = 247
x = 385	y = 257
x = 385	y = 257
x = 385	y = 257
x = 385	y = 257
x = 385	y = 257
x = 368	y = 265
x = 368	y = 265
x = 368	y = 265
x = 368	y = 265
x = 368	y = 265
x = 368	y = 265
x = 357	y = 272
x = 357	y = 272
x = 357	y = 272
x = 357	y = 272
x = 357	y = 272
x = 357	y = 272
x = 349	y = 277
x = 349	y = 277
x = 349	y = 277
x = 349	y = 277
x = 349	y = 277
x = 346	y = 280
x = 346	y = 280
x = 346	y = 280
x = 346	y = 280
x = 346	y = 280
x = 346	y = 280
x = 343	y = 282
x = 343	y = 282
x = 343	y = 282
x = 343	y = 282
x = 343	y = 282
x = 341	y = 286
x = 341	y = 286
x = 341	y = 286
x = 341	y = 286
x = 341	y = 286
x = 339	y = 288
x = 339	y = 288
x = 339	y = 288
x = 339	y = 288
x = 339	y = 288
x = 339	y = 288
x = 338	y = 291
x = 338	y = 291
x = 338	y = 291
x = 338	y = 291
x = 338	y = 291
x = 338	y = 291
x = 336	y = 295
x = 336	y = 295
x = 336	y = 295
x = 336	y = 295
x = 336	y = 295
x = 331	y = 308
x = 331	y = 308
x = 331	y = 308
x = 331	y = 308
x = 331	y = 308
x = 328	y = 324
x = 328	y = 324
x = 328	y = 324
x = 328	y = 324
x = 328	y = 324
x = 328	y = 324
x = 324	y = 343
x = 324	y = 343
x = 324	y = 343
x = 324	y = 343
x = 324	y = 343
x = 324	y = 343
x = 321	y = 358
x = 321	y = 358
x = 321	y = 358
x = 321	y = 358
x = 321	y = 358
x = 320	y = 372
x = 320	y = 372
x = 320	y = 372
x = 320	y = 372
x = 320	y = 372
x = 319	y = 385
x = 319	y = 385
x = 319	y = 385
x = 319	y = 385
x = 319	y = 385
x = 319	y = 385
x = 319	y = 398
x = 319	y = 398
x = 319	y = 398
x = 319	y = 398
x = 319	y = 398
x = 319	y = 398
x = 319	y = 406
x = 319	y = 406
x = 319	y = 406
x = 319	y = 406
x = 319	y = 406
x = 319	y = 410
x = 319	y = 410
x = 319	y = 410
x = 319	y = 410
x = 319	y = 410
x = 319	y = 415
x = 319	y = 415
x = 319	y = 415
x = 319	y = 415
x = 319	y = 415
x = 319	y = 415
x = 320	y = 418
x = 320	y = 418
x = 320	y = 418
x = 320	y = 418
x = 320	y = 418
x = 321	y = 421
x = 321	y = 421
x = 321	y = 421
x = 321	y = 421
x = 321	y = 421
x = 323	y = 426
x = 323	y = 426
x = 323	y = 426
x = 323	y = 426
x = 323	y = 426
x = 323	y = 426
x = 325	y = 429
x = 325	y = 429
x = 325	y = 429
x = 325	y = 429
x = 325	y = 429
x = 325	y = 429
x = 330	y = 437
x = 330	y = 437
x = 330	y = 437
x = 330	y = 437
x = 330	y = 437
x = 338	y = 449
x = 338	y = 449
x = 338	y = 449
x = 338	y = 449
x = 338	y = 449
x = 347	y = 460
x = 347	y = 460
x = 347	y = 460
x = 347	y = 460
x = 347	y = 460
x = 347	y = 460
x = 360	y = 471
x = 360	y = 471
x = 360	y = 471
x = 360	y = 471
x = 360	y = 471
x = 372	y = 482
x = 372	y = 482
x = 372	y = 482
x = 372	y = 482
x = 372	y = 482
x = 379	y = 488
x = 379	y = 488
x = 379	y = 488
x = 379	y = 488
x = 379	y = 488
x = 391	y = 494
x = 391	y = 494
x = 391	y = 494
x = 391	y = 494
x = 391	y = 494
x = 391	y = 494
x = 394	y = 496
x = 394	y = 496
x = 394	y = 496
x = 394	y = 496
x = 394	y = 496
x = 397	y = 499
x = 397	y = 499
x = 397	y = 499
x = 397	y = 499
x = 397	y = 499
x = 401	y = 500
x = 401	y = 500
x = 401	y = 500
x = 401	y = 500
x = 401	y = 500
x = 404	y = 503
x = 404	y = 503
x = 404	y = 503
x = 404	y = 503
x = 404	y = 503
x = 404	y = 503
x = 408	y = 504
x = 408	y = 504
x = 408	y = 504
x = 408	y = 504
x = 408	y = 504
x = 412	y = 505
x = 412	y = 505
x = 412	y = 505
x = 412	y = 505
x = 412	y = 505
x = 412	y = 505
x = 416	y = 505
x = 416	y = 505
x = 416	y = 505
x = 416	y = 505
x = 416	y = 505
x = 419	y = 506
x = 419	y = 506
x = 419	y = 506
x = 419	y = 506
x = 419	y = 506
x = 419	y = 506
x = 423	y = 506
x = 423	y = 506
x = 423	y = 506
x = 423	y = 506
x = 423	y = 506
x = 432	y = 506
x = 432	y = 506
x = 432	y = 506
x = 432	y = 506
x = 432	y = 506
x = 451	y = 505
x = 451	y = 505
x = 451	y = 505
x = 451	y = 505
x = 451	y = 505
x = 451	y = 505
x = 451	y = 505
x = 478	y = 500
x = 478	y = 500
x = 478	y = 500
x = 478	y = 500
x = 478	y = 500
x = 510	y = 493
x = 510	y = 493
x = 510	y = 493
x = 510	y = 493
x = 510	y = 493
x = 510	y = 493
x = 541	y = 486
x = 541	y = 486
x = 541	y = 486
x = 541	y = 486
x = 541	y = 486
x = 569	y = 478
x = 569	y = 478
x = 569	y = 478
x = 569	y = 478
x = 569	y = 478
x = 594	y = 469
x = 594	y = 469
x = 594	y = 469
x = 594	y = 469
x = 594	y = 469
x = 594	y = 469
x = 617	y = 458
x = 617	y = 458
x = 617	y = 458
x = 617	y = 458
x = 617	y = 458
x = 617	y = 458
x = 636	y = 445
x = 636	y = 445
x = 636	y = 445
x = 636	y = 445
x = 656	y = 430
x = 656	y = 430
x = 656	y = 430
x = 656	y = 430
x = 656	y = 430
x = 656	y = 430
x = 672	y = 414
x = 672	y = 414
x = 672	y = 414
x = 672	y = 414
x = 672	y = 414
x = 685	y = 395
x = 685	y = 395
x = 685	y = 395
x = 685	y = 395
x = 685	y = 395
x = 696	y = 372
x = 696	y = 372
x = 696	y = 372
x = 696	y = 372
x = 696	y = 372
x = 696	y = 372
x = 706	y = 342
x = 706	y = 342
x = 706	y = 342
x = 706	y = 342
x = 706	y = 342
x = 706	y = 342
x = 712	y = 315
x = 712	y = 315
x = 712	y = 315
x = 712	y = 315
x = 712	y = 315
x = 712	y = 315
x = 716	y = 294
x = 716	y = 294
x = 716	y = 294
x = 716	y = 294
x = 716	y = 294
x = 719	y = 278
x = 719	y = 278
x = 719	y = 278
x = 719	y = 278
x = 719	y = 278
x = 719	y = 278
x = 720	y = 271
x = 720	y = 271
x = 720	y = 271
x = 720	y = 271
x = 720	y = 271
x = 720	y = 268
x = 720	y = 268
x = 720	y = 268
x = 720	y = 268
x = 720	y = 268
x = 720	y = 265
x = 720	y = 265
x = 720	y = 265
x = 720	y = 265
x = 720	y = 265
x = 720	y = 265
x = 720	y = 263
x = 720	y = 263
x = 720	y = 263
x = 720	y = 263
x = 720	y = 263
x = 720	y = 261
x = 720	y = 261
x = 720	y = 261
x = 720	y = 261
x = 720	y = 261
x = 719	y = 258
x = 719	y = 258
x = 719	y = 258
x = 719	y = 258
x = 719	y = 258
x = 715	y = 252
x = 715	y = 252
x = 715	y = 252
x = 715	y = 252
x = 715	y = 252
x = 715	y = 252
x = 705	y = 237
x = 705	y = 237
x = 705	y = 237
x = 705	y = 237
x = 705	y = 237
x = 705	y = 237
x = 695	y = 223
x = 695	y = 223
x = 695	y = 223
x = 695	y = 223
x = 695	y = 223
x = 684	y = 211
x = 684	y = 211
x = 684	y = 211
x = 684	y = 211
x = 684	y = 211
x = 674	y = 202
x = 674	y = 202
x = 674	y = 202
x = 674	y = 202
x = 674	y = 202
x = 668	y = 199
x = 668	y = 199
x = 668	y = 199
x = 668	y = 199
x = 668	y = 199
x = 668	y = 199
x = 663	y = 197
x = 663	y = 197
x = 663	y = 197
x = 663	y = 197
x = 663	y = 197
x = 650	y = 195
x = 650	y = 195
x = 650	y = 195
x = 650	y = 195
x = 650	y = 195
x = 650	y = 195
x = 637	y = 194
x = 637	y = 194
x = 637	y = 194
x = 637	y = 194
x = 616	y = 194
x = 616	y = 194
x = 616	y = 194
x = 616	y = 194
x = 616	y = 194
x = 616	y = 194
x = 597	y = 194
x = 597	y = 194
x = 597	y = 194
x = 597	y = 194
x = 597	y = 194
x = 577	y = 194
x = 577	y = 194
x = 577	y = 194
x = 577	y = 194
x = 577	y = 194
x = 553	y = 200
x = 553	y = 200
x = 553	y = 200
x = 553	y = 200
x = 553	y = 200
x = 553	y = 200
x = 531	y = 206
x = 531	y = 206
x = 531	y = 206
x = 531	y = 206
x = 531	y = 206
x = 531	y = 206
x = 506	y = 215
x = 506	y = 215
x = 506	y = 215
x = 506	y = 215
x = 488	y = 223
x = 488	y = 223
x = 488	y = 223
x = 488	y = 223
x = 488	y = 223
x = 488	y = 223
x = 488	y = 223
x = 471	y = 232
x = 471	y = 232
x = 471	y = 232
x = 471	y = 232
x = 471	y = 232
x = 454	y = 242
x = 454	y = 242
x = 454	y = 242
x = 454	y = 242
x = 454	y = 242
x = 454	y = 242
x = 440	y = 253
x = 440	y = 253
x = 440	y = 253
x = 440	y = 253
x = 440	y = 253
x = 430	y = 262
x = 430	y = 262
x = 430	y = 262
x = 430	y = 262
x = 430	y = 262
x = 420	y = 272
x = 420	y = 272
x = 420	y = 272
x = 420	y = 272
x = 420	y = 272
x = 411	y = 281
x = 411	y = 281
x = 411	y = 281
x = 411	y = 281
x = 411	y = 281
x = 403	y = 294
x = 403	y = 294
x = 403	y = 294
x = 403	y = 294
x = 403	y = 294
x = 396	y = 307
x = 396	y = 307
x = 396	y = 307
x = 396	y = 307
x = 396	y = 307
x = 387	y = 327
x = 387	y = 327
x = 387	y = 327
x = 387	y = 327
x = 387	y = 327
x = 387	y = 327
x = 382	y = 346
x = 382	y = 346
x = 382	y = 346
x = 382	y = 346
x = 382	y = 346
x = 376	y = 365
x = 376	y = 365
x = 376	y = 365
x = 376	y = 365
x = 376	y = 365
x = 375	y = 382
x = 375	y = 382
x = 375	y = 382
x = 375	y = 382
x = 375	y = 382
x = 373	y = 396
x = 373	y = 396
x = 373	y = 396
x = 373	y = 396
x = 373	y = 396
x = 373	y = 410
x = 373	y = 410
x = 373	y = 410
x = 373	y = 410
x = 373	y = 410
x = 373	y = 410
x = 373	y = 414
x = 373	y = 414
x = 373	y = 414
x = 373	y = 414
x = 373	y = 414
x = 373	y = 417
x = 373	y = 417
x = 373	y = 417
x = 373	y = 417
x = 373	y = 417
x = 373	y = 417
x = 373	y = 422
x = 373	y = 422
x = 373	y = 422
x = 373	y = 422
x = 373	y = 422
x = 376	y = 426
x = 376	y = 426
x = 376	y = 426
x = 376	y = 426
x = 376	y = 426
x = 385	y = 438
x = 385	y = 438
x = 385	y = 438
x = 385	y = 438
x = 385	y = 438
x = 385	y = 438
x = 396	y = 452
x = 396	y = 452
x = 396	y = 452
x = 396	y = 452
x = 396	y = 452
x = 396	y = 452
x = 410	y = 469
x = 410	y = 469
x = 410	y = 469
x = 410	y = 469
x = 410	y = 469
x = 426	y = 485
x = 426	y = 485
x = 426	y = 485
x = 426	y = 485
x = 426	y = 485
x = 445	y = 505
x = 445	y = 505
x = 445	y = 505
x = 445	y = 505
x = 445	y = 505
x = 460	y = 519
x = 460	y = 519
x = 460	y = 519
x = 460	y = 519
x = 460	y = 519
x = 475	y = 533
x = 475	y = 533
x = 475	y = 533
x = 475	y = 533
x = 475	y = 533
x = 475	y = 533
x = 486	y = 542
x = 486	y = 542
x = 486	y = 542
x = 486	y = 542
x = 486	y = 542
x = 496	y = 551
x = 496	y = 551
x = 496	y = 551
x = 496	y = 551
x = 496	y = 551
x = 504	y = 555
x = 504	y = 555
x = 504	y = 555
x = 504	y = 555
x = 504	y = 555
x = 512	y = 561
x = 512	y = 561
x = 512	y = 561
x = 512	y = 561
x = 512	y = 561
x = 512	y = 561
x = 526	y = 565
x = 526	y = 565
x = 526	y = 565
x = 526	y = 565
x = 540	y = 570
x = 540	y = 570
x = 540	y = 570
x = 540	y = 570
x = 540	y = 570
x = 540	y = 570
x = 554	y = 573
x = 554	y = 573
x = 554	y = 573
x = 554	y = 573
x = 554	y = 573
x = 567	y = 574
x = 567	y = 574
x = 567	y = 574
x = 567	y = 574
x = 567	y = 574
x = 567	y = 574
x = 583	y = 574
x = 583	y = 574
x = 583	y = 574
x = 583	y = 574
x = 583	y = 574
x = 601	y = 573
x = 601	y = 573
x = 601	y = 573
x = 601	y = 573
x = 601	y = 573
x = 601	y = 573
x = 601	y = 573
x = 622	y = 569
x = 622	y = 569
x = 622	y = 569
x = 622	y = 569
x = 622	y = 569
x = 644	y = 561
x = 644	y = 561
x = 644	y = 561
x = 644	y = 561
x = 644	y = 561
x = 667	y = 552
x = 667	y = 552
x = 667	y = 552
x = 667	y = 552
x = 667	y = 552
x = 667	y = 552
x = 690	y = 543
x = 690	y = 543
x = 690	y = 543
x = 690	y = 543
x = 690	y = 543
x = 708	y = 535
x = 708	y = 535
x = 708	y = 535
x = 708	y = 535
x = 708	y = 535
x = 708	y = 535
x = 722	y = 529
x = 722	y = 529
x = 722	y = 529
x = 722	y = 529
x = 722	y = 529
x = 722	y = 529
x = 737	y = 524
x = 737	y = 524
x = 737	y = 524
x = 737	y = 524
x = 737	y = 524
x = 749	y = 520
x = 749	y = 520
x = 749	y = 520
x = 749	y = 520
x = 749	y = 520
x = 749	y = 520
x = 752	y = 519
x = 752	y = 519
x = 752	y = 519
x = 752	y = 519
x = 752	y = 519
x = 756	y = 517
x = 756	y = 517
x = 756	y = 517
x = 756	y = 517
x = 756	y = 517
x = 756	y = 517
x = 765	y = 516
x = 765	y = 516
x = 765	y = 516
x = 765	y = 516
x = 765	y = 516
x = 770	y = 515
x = 770	y = 515
x = 770	y = 515
x = 770	y = 515
x = 770	y = 515
x = 773	y = 515
x = 773	y = 515
x = 773	y = 515
x = 773	y = 515
x = 773	y = 515
x = 775	y = 515
x = 775	y = 515
x = 775	y = 515
x = 775	y = 515
x = 775	y = 515
x = 776	y = 515
x = 776	y = 515
x = 776	y = 515
x = 776	y = 515
x = 776	y = 515
x = 776	y = 515
x = 776	y = 515
x = 776	y = 515
x = 776	y = 515
x = 776	y = 515
x = 776	y = 515
x = 777	y = 516
x = 777	y = 516
x = 777	y = 516
x = 777	y = 516
x = 777	y = 516
x = 777	y = 516
x = 777	y = 516
x = 777	y = 516
x = 777	y = 516
x = 777	y = 516
x = 777	y = 516
x = 778	y = 518
x = 778	y = 518
x = 778	y = 518
x = 778	y = 518
x = 778	y = 518
x = 778	y = 519
x = 778	y = 519
x = 778	y = 519
x = 778	y = 519
x = 778	y = 519
x = 778	y = 519
x = 778	y = 520
x = 778	y = 520
x = 778	y = 520
x = 778	y = 520
x = 778	y = 520
x = 778	y = 520
x = 778	y = 522
x = 778	y = 522
x = 778	y = 522
x = 778	y = 522
x = 778	y = 522
x = 778	y = 522
x = 778	y = 524
x = 778	y = 524
x = 778	y = 524
x = 778	y = 524
x = 778	y = 524
x = 776	y = 526
x = 776	y = 526
x = 776	y = 526
x = 776	y = 526
x = 776	y = 526
x = 776	y = 526
x = 774	y = 528
x = 774	y = 528
x = 774	y = 528
x = 774	y = 528
x = 774	y = 528
x = 768	y = 533
x = 768	y = 533
x = 768	y = 533
x = 768	y = 533
x = 768	y = 533
x = 757	y = 541
x = 757	y = 541
x = 757	y = 541
x = 757	y = 541
x = 757	y = 541
x = 746	y = 548
x = 746	y = 548
x = 746	y = 548
x = 746	y = 548
x = 746	y = 548
x = 746	y = 548
x = 730	y = 561
x = 730	y = 561
x = 730	y = 561
x = 730	y = 561
x = 730	y = 561
x = 730	y = 561
x = 708	y = 579
x = 708	y = 579
x = 708	y = 579
x = 708	y = 579
x = 708	y = 579
x = 685	y = 596
x = 685	y = 596
x = 685	y = 596
x = 685	y = 596
x = 685	y = 596
x = 685	y = 596
x = 668	y = 611
x = 668	y = 611
x = 668	y = 611
x = 668	y = 611
x = 668	y = 611
x = 651	y = 623
x = 651	y = 623
x = 651	y = 623
x = 651	y = 623
x = 651	y = 623
x = 634	y = 634
x = 634	y = 634
x = 634	y = 634
x = 634	y = 634
x = 634	y = 634
x = 634	y = 634
x = 619	y = 644
x = 619	y = 644
x = 619	y = 644
x = 619	y = 644
x = 619	y = 644
x = 599	y = 651
x = 599	y = 651
x = 599	y = 651
x = 599	y = 651
x = 599	y = 651
x = 580	y = 656
x = 580	y = 656
x = 580	y = 656
x = 580	y = 656
x = 580	y = 656
x = 559	y = 660
x = 559	y = 660
x = 559	y = 660
x = 559	y = 660
x = 559	y = 660
x = 559	y = 660
x = 539	y = 662
x = 539	y = 662
x = 539	y = 662
x = 539	y = 662
x = 539	y = 662
x = 539	y = 662
x = 524	y = 662
x = 524	y = 662
x = 524	y = 662
x = 524	y = 662
x = 524	y = 662
x = 524	y = 662
x = 510	y = 662
x = 510	y = 662
x = 510	y = 662
x = 510	y = 662
x = 510	y = 662
x = 500	y = 662
x = 500	y = 662
x = 500	y = 662
x = 500	y = 662
x = 500	y = 662
x = 500	y = 662
x = 496	y = 662
x = 496	y = 662
x = 496	y = 662
x = 496	y = 662
x = 496	y = 662
x = 492	y = 661
x = 492	y = 661
x = 492	y = 661
x = 492	y = 661
x = 492	y = 661
x = 492	y = 661
x = 483	y = 659
x = 483	y = 659
x = 483	y = 659
x = 483	y = 659
x = 483	y = 659
x = 470	y = 656
x = 470	y = 656
x = 470	y = 656
x = 470	y = 656
x = 470	y = 656
x = 450	y = 650
x = 450	y = 650
x = 450	y = 650
x = 450	y = 650
x = 450	y = 650
x = 423	y = 640
x = 423	y = 640
x = 423	y = 640
x = 423	y = 640
x = 423	y = 640
x = 423	y = 640
x = 391	y = 624
x = 391	y = 624
x = 391	y = 624
x = 391	y = 624
x = 367	y = 608
x = 367	y = 608
x = 367	y = 608
x = 367	y = 608
x = 367	y = 608
x = 367	y = 608
x = 367	y = 608
x = 347	y = 595
x = 347	y = 595
x = 347	y = 595
x = 347	y = 595
x = 347	y = 595
x = 337	y = 586
x = 337	y = 586
x = 337	y = 586
x = 337	y = 586
x = 337	y = 586
x = 334	y = 583
x = 334	y = 583
x = 334	y = 583
x = 334	y = 583
x = 334	y = 583
x = 334	y = 583
x = 332	y = 580
x = 332	y = 580
x = 332	y = 580
x = 332	y = 580
x = 332	y = 580
x = 330	y = 576
x = 330	y = 576
x = 330	y = 576
x = 330	y = 576
x = 330	y = 576
x = 326	y = 570
x = 326	y = 570
x = 326	y = 570
x = 326	y = 570
x = 326	y = 570
x = 321	y = 553
x = 321	y = 553
x = 321	y = 553
x = 321	y = 553
x = 321	y = 553
x = 312	y = 523
x = 312	y = 523
x = 312	y = 523
x = 312	y = 523
x = 312	y = 523
x = 307	y = 494
x = 307	y = 494
x = 307	y = 494
x = 307	y = 494
x = 307	y = 494
x = 306	y = 466
x = 306	y = 466
x = 306	y = 466
x = 306	y = 466
x = 306	y = 466
x = 306	y = 466
x = 306	y = 444
x = 306	y = 444
x = 306	y = 444
x = 306	y = 444
x = 306	y = 444
x = 308	y = 424
x = 308	y = 424
x = 308	y = 424
x = 308	y = 424
x = 308	y = 424
x = 312	y = 405
x = 312	y = 405
x = 312	y = 405
x = 312	y = 405
x = 312	y = 405
x = 312	y = 405
x = 315	y = 392
x = 315	y = 392
x = 315	y = 392
x = 315	y = 392
x = 315	y = 392
x = 315	y = 392
x = 317	y = 385
x = 317	y = 385
x = 317	y = 385
x = 317	y = 385
x = 317	y = 385
x = 319	y = 381
x = 319	y = 381
x = 319	y = 381
x = 319	y = 381
x = 319	y = 381
x = 320	y = 378
x = 320	y = 378
x = 320	y = 378
x = 320	y = 378
x = 320	y = 378
x = 320	y = 378
x = 322	y = 376
x = 322	y = 376
x = 322	y = 376
x = 322	y = 376
x = 322	y = 376
x = 324	y = 373
x = 324	y = 373
x = 324	y = 373
x = 324	y = 373
x = 324	y = 373
x = 324	y = 373
x = 327	y = 370
x = 327	y = 370
x = 327	y = 370
x = 327	y = 370
x = 330	y = 367
x = 330	y = 367
x = 330	y = 367
x = 330	y = 367
x = 330	y = 367
x = 330	y = 367
x = 341	y = 359
x = 341	y = 359
x = 341	y = 359
x = 341	y = 359
x = 341	y = 359
x = 360	y = 348
x = 360	y = 348
x = 360	y = 348
x = 360	y = 348
x = 360	y = 348
x = 360	y = 348
x = 384	y = 335
x = 384	y = 335
x = 384	y = 335
x = 384	y = 335
x = 407	y = 325
x = 407	y = 325
x = 407	y = 325
x = 407	y = 325
x = 407	y = 325
x = 430	y = 314
x = 430	y = 314
x = 430	y = 314
x = 430	y = 314
x = 430	y = 314
x = 430	y = 314
x = 450	y = 305
x = 450	y = 305
x = 450	y = 305
x = 450	y = 305
x = 450	y = 305
x = 450	y = 305
x = 475	y = 297
x = 475	y = 297
x = 475	y = 297
x = 475	y = 297
x = 475	y = 297
x = 491	y = 294
x = 491	y = 294
x = 491	y = 294
x = 491	y = 294
x = 491	y = 294
x = 491	y = 294
x = 512	y = 291
x = 512	y = 291
x = 512	y = 291
x = 512	y = 291
x = 512	y = 291
x = 512	y = 291
x = 526	y = 291
x = 526	y = 291
x = 526	y = 291
x = 526	y = 291
x = 526	y = 291
x = 545	y = 291
x = 545	y = 291
x = 545	y = 291
x = 545	y = 291
x = 545	y = 291
x = 566	y = 295
x = 566	y = 295
x = 566	y = 295
x = 566	y = 295
x = 566	y = 295
x = 566	y = 295
x = 580	y = 300
x = 580	y = 300
x = 580	y = 300
x = 580	y = 300
x = 580	y = 300
x = 580	y = 300
x = 595	y = 306
x = 595	y = 306
x = 595	y = 306
x = 595	y = 306
x = 595	y = 306
x = 606	y = 312
x = 606	y = 312
x = 606	y = 312
x = 606	y = 312
x = 606	y = 312
x = 611	y = 316
x = 611	y = 316
x = 611	y = 316
x = 611	y = 316
x = 611	y = 316
x = 611	y = 316
x = 613	y = 318
x = 613	y = 318
x = 613	y = 318
x = 613	y = 318
x = 613	y = 318
x = 613	y = 318
x = 615	y = 320
x = 615	y = 320
x = 615	y = 320
x = 615	y = 320
x = 618	y = 324
x = 618	y = 324
x = 618	y = 324
x = 618	y = 324
x = 618	y = 324
x = 618	y = 324
x = 618	y = 324
x = 620	y = 327
x = 620	y = 327
x = 620	y = 327
x = 620	y = 327
x = 620	y = 327
x = 622	y = 331
x = 622	y = 331
x = 622	y = 331
x = 622	y = 331
x = 622	y = 331
x = 623	y = 334
x = 623	y = 334
x = 623	y = 334
x = 623	y = 334
x = 623	y = 334
x = 623	y = 334
x = 624	y = 338
x = 624	y = 338
x = 624	y = 338
x = 624	y = 338
x = 624	y = 338
x = 624	y = 338
x = 625	y = 341
x = 625	y = 341
x = 625	y = 341
x = 625	y = 341
x = 625	y = 341
x = 625	y = 344
x = 625	y = 344
x = 625	y = 344
x = 625	y = 344
x = 625	y = 344
x = 625	y = 344
x = 625	y = 347
x = 625	y = 347
x = 625	y = 347
x = 625	y = 347
x = 625	y = 347
x = 625	y = 350
x = 625	y = 350
x = 625	y = 350
x = 625	y = 350
x = 625	y = 350
x = 625	y = 353
x = 625	y = 353
x = 625	y = 353
x = 625	y = 353
x = 625	y = 353
x = 623	y = 358
x = 623	y = 358
x = 623	y = 358
x = 623	y = 358
x = 623	y = 358
x = 623	y = 358
x = 616	y = 370
x = 616	y = 370
x = 616	y = 370
x = 616	y = 370
x = 616	y = 370
x = 607	y = 384
x = 607	y = 384
x = 607	y = 384
x = 607	y = 384
x = 607	y = 384
x = 599	y = 397
x = 599	y = 397
x = 599	y = 397
x = 599	y = 397
x = 599	y = 397
x = 599	y = 397
x = 587	y = 412
x = 587	y = 412
x = 587	y = 412
x = 587	y = 412
x = 587	y = 412
x = 587	y = 412
x = 575	y = 423
x = 575	y = 423
x = 575	y = 423
x = 575	y = 423
x = 575	y = 423
x = 562	y = 436
x = 562	y = 436
x = 562	y = 436
x = 562	y = 436
x = 562	y = 436
x = 562	y = 436
x = 543	y = 449
x = 543	y = 449
x = 543	y = 449
x = 543	y = 449
x = 543	y = 449
x = 543	y = 449
x = 522	y = 460
x = 522	y = 460
x = 522	y = 460
x = 522	y = 460
x = 522	y = 460
x = 500	y = 467
x = 500	y = 467
x = 500	y = 467
x = 500	y = 467
x = 500	y = 467
x = 476	y = 470
x = 476	y = 470
x = 476	y = 470
x = 476	y = 470
x = 476	y = 470
x = 455	y = 470
x = 455	y = 470
x = 455	y = 470
x = 455	y = 470
x = 455	y = 470
x = 455	y = 470
x = 455	y = 470
x = 437	y = 470
x = 437	y = 470
x = 437	y = 470
x = 437	y = 470
x = 437	y = 470
x = 437	y = 470
x = 421	y = 466
x = 421	y = 466
x = 421	y = 466
x = 421	y = 466
x = 421	y = 466
x = 414	y = 464
x = 414	y = 464
x = 414	y = 464
x = 414	y = 464
x = 414	y = 464
x = 411	y = 463
x = 411	y = 463
x = 411	y = 463
x = 411	y = 463
x = 411	y = 463
x = 409	y = 462
x = 409	y = 462
x = 409	y = 462
x = 409	y = 462
x = 409	y = 462
x = 407	y = 461
x = 407	y = 461
x = 407	y = 461
x = 407	y = 461
x = 407	y = 461
x = 405	y = 460
x = 405	y = 460
x = 405	y = 460
x = 405	y = 460
x = 405	y = 460
x = 404	y = 459
x = 404	y = 459
x = 404	y = 459
x = 404	y = 459
x = 404	y = 459
x = 404	y = 459
x = 403	y = 458
x = 403	y = 458
x = 403	y = 458
x = 403	y = 458
x = 403	y = 458
x = 401	y = 457
x = 401	y = 457
x = 401	y = 457
x = 401	y = 457
x = 401	y = 457
x = 401	y = 457
x = 401	y = 456
x = 401	y = 456
x = 401	y = 456
x = 401	y = 456
x = 401	y = 456
x = 399	y = 455
x = 399	y = 455
x = 399	y = 455
x = 399	y = 455
x = 399	y = 455
x = 398	y = 453
x = 398	y = 453
x = 398	y = 453
x = 398	y = 453
x = 398	y = 453
x = 397	y = 452
x = 397	y = 452
x = 397	y = 452
x = 397	y = 452
x = 397	y = 452
x = 396	y = 451
x = 396	y = 451
x = 396	y = 451
x = 396	y = 451
x = 396	y = 451
x = 396	y = 451
x = 395	y = 450
x = 395	y = 450
x = 395	y = 450
x = 395	y = 450
x = 395	y = 450
x = 395	y = 450
x = 395	y = 449
x = 395	y = 449
x = 395	y = 449
x = 395	y = 449
x = 395	y = 449
x = 395	y = 448
x = 395	y = 448
x = 395	y = 448
x = 395	y = 448
x = 395	y = 448
x = 395	y = 447
x = 395	y = 447
x = 395	y = 447
x = 395	y = 447
x = 395	y = 447
x = 395	y = 446
x = 395	y = 446
x = 395	y = 446
x = 395	y = 446
x = 395	y = 446
x = 395	y = 445
x = 395	y = 445
x = 395	y = 445
x = 395	y = 445
x = 395	y = 445
x = 395	y = 445
x = 395	y = 445
x = 395	y = 445
x = 395	y = 445
x = 395	y = 445
x = 395	y = 445
x = 395	y = 445
x = 395	y = 443
x = 395	y = 443
x = 395	y = 443
x = 395	y = 443
x = 395	y = 443
x = 396	y = 443
x = 396	y = 443
x = 396	y = 443
x = 396	y = 443
x = 396	y = 443
x = 398	y = 441
x = 398	y = 441
x = 398	y = 441
x = 398	y = 441
x = 398	y = 441
x = 398	y = 441
x = 404	y = 437
x = 404	y = 437
x = 404	y = 437
x = 404	y = 437
x = 404	y = 437
x = 420	y = 430
x = 420	y = 430
x = 420	y = 430
x = 420	y = 430
x = 420	y = 430
x = 443	y = 419
x = 443	y = 419
x = 443	y = 419
x = 443	y = 419
x = 443	y = 419
x = 443	y = 419
x = 443	y = 419
x = 466	y = 410
x = 466	y = 410
x = 466	y = 410
x = 466	y = 410
x = 466	y = 410
x = 489	y = 399
x = 489	y = 399
x = 489	y = 399
x = 489	y = 399
x = 489	y = 399
x = 506	y = 394
x = 506	y = 394
x = 506	y = 394
x = 506	y = 394
x = 506	y = 394
x = 523	y = 387
x = 523	y = 387
x = 523	y = 387
x = 523	y = 387
x = 523	y = 387
x = 539	y = 384
x = 539	y = 384
x = 539	y = 384
x = 539	y = 384
x = 539	y = 384
x = 539	y = 384
x = 551	y = 379
x = 551	y = 379
x = 551	y = 379
x = 551	y = 379
x = 551	y = 379
x = 551	y = 379
x = 557	y = 378
x = 557	y = 378
x = 557	y = 378
x = 557	y = 378
x = 557	y = 378
x = 561	y = 378
x = 561	y = 378
x = 561	y = 378
x = 561	y = 378
x = 561	y = 378
x = 561	y = 378
x = 561	y = 378
x = 565	y = 378
x = 565	y = 378
x = 565	y = 378
x = 565	y = 378
x = 565	y = 378
x = 568	y = 378
x = 568	y = 378
x = 568	y = 378
x = 568	y = 378
x = 568	y = 378
x = 571	y = 379
x = 571	y = 379
x = 571	y = 379
x = 571	y = 379
x = 571	y = 379
x = 571	y = 379
x = 574	y = 380
x = 574	y = 380
x = 574	y = 380
x = 574	y = 380
x = 574	y = 380
x = 574	y = 380
x = 575	y = 382
x = 575	y = 382
x = 575	y = 382
x = 575	y = 382
x = 575	y = 382
x = 576	y = 383
x = 576	y = 383
x = 576	y = 383
x = 576	y = 383
x = 576	y = 383
x = 576	y = 383
x = 576	y = 385
x = 576	y = 385
x = 576	y = 385
x = 576	y = 385
x = 576	y = 385
x = 577	y = 386
x = 577	y = 386
x = 577	y = 386
x = 577	y = 386
x = 577	y = 386
x = 577	y = 386
x = 578	y = 388
x = 578	y = 388
x = 578	y = 388
x = 578	y = 388
x = 578	y = 388
x = 578	y = 390
x = 578	y = 390
x = 578	y = 390
x = 578	y = 390
x = 578	y = 390
x = 579	y = 392
x = 579	y = 392
x = 579	y = 392
x = 579	y = 392
x = 579	y = 392
x = 579	y = 392
x = 579	y = 392
x = 579	y = 395
x = 579	y = 395
x = 579	y = 395
x = 579	y = 395
x = 579	y = 395
x = 579	y = 395
x = 579	y = 397
x = 579	y = 397
x = 579	y = 397
x = 579	y = 397
x = 579	y = 397
x = 579	y = 398
x = 579	y = 398
x = 579	y = 398
x = 579	y = 398
x = 579	y = 398
x = 578	y = 400
x = 578	y = 400
x = 578	y = 400
x = 578	y = 400
x = 578	y = 400
x = 577	y = 402
x = 577	y = 402
x = 577	y = 402
x = 577	y = 402
x = 577	y = 402
x = 577	y = 402
x = 577	y = 403
x = 577	y = 403
x = 577	y = 403
x = 577	y = 403
x = 577	y = 403
x = 576	y = 405
x = 576	y = 405
x = 576	y = 405
x = 576	y = 405
x = 576	y = 405
x = 576	y = 405
x = 575	y = 407
x = 575	y = 407
x = 575	y = 407
x = 575	y = 407
x = 575	y = 407
x = 575	y = 407
x = 573	y = 408
x = 573	y = 408
x = 573	y = 408
x = 573	y = 408
x = 573	y = 408
x = 571	y = 410
x = 571	y = 410
x = 571	y = 410
x = 571	y = 410
x = 571	y = 410
x = 568	y = 412
x = 568	y = 412
x = 568	y = 412
x = 568	y = 412
x = 568	y = 412
x = 568	y = 412
x = 564	y = 414
x = 564	y = 414
x = 564	y = 414
x = 564	y = 414
x = 564	y = 414
x = 564	y = 414
x = 564	y = 414
x = 553	y = 422
x = 553	y = 422
x = 553	y = 422
x = 553	y = 422
x = 553	y = 422
x = 553	y = 422
x = 540	y = 430
x = 540	y = 430
x = 540	y = 430
x = 540	y = 430
x = 540	y = 430
x = 527	y = 437
x = 527	y = 437
x = 527	y = 437
x = 527	y = 437
x = 527	y = 437
x = 516	y = 444
x = 516	y = 444
x = 516	y = 444
x = 516	y = 444
x = 516	y = 444
x = 503	y = 451
x = 503	y = 451
x = 503	y = 451
x = 503	y = 451
x = 503	y = 451
x = 492	y = 456
x = 492	y = 456
x = 492	y = 456
x = 492	y = 456
x = 492	y = 456
x = 480	y = 459
x = 480	y = 459
x = 480	y = 459
x = 480	y = 459
x = 480	y = 459
x = 480	y = 459
x = 473	y = 460
x = 473	y = 460
x = 473	y = 460
x = 473	y = 460
x = 473	y = 460
x = 473	y = 460
x = 464	y = 461
x = 464	y = 461
x = 464	y = 461
x = 464	y = 461
x = 464	y = 461
x = 460	y = 461
x = 460	y = 461
x = 460	y = 461
x = 460	y = 461
x = 454	y = 461
x = 454	y = 461
x = 454	y = 461
x = 454	y = 461
x = 454	y = 461
x = 454	y = 461
x = 454	y = 461
x = 451	y = 461
x = 451	y = 461
x = 451	y = 461
x = 451	y = 461
x = 451	y = 461
x = 448	y = 461
x = 448	y = 461
x = 448	y = 461
x = 448	y = 461
x = 448	y = 461
x = 448	y = 461
x = 446	y = 461
x = 446	y = 461
x = 446	y = 461
x = 446	y = 461
x = 446	y = 461
x = 445	y = 461
x = 445	y = 461
x = 445	y = 461
x = 445	y = 461
x = 445	y = 461
x = 442	y = 461
x = 442	y = 461
x = 442	y = 461
x = 442	y = 461
x = 442	y = 461
x = 442	y = 461
x = 442	y = 461
x = 442	y = 461
x = 442	y = 461
x = 442	y = 461
x = 442	y = 461
x = 441	y = 461
x = 441	y = 461
x = 441	y = 461
x = 441	y = 461
x = 441	y = 461
x = 441	y = 461
x = 441	y = 461
x = 441	y = 461
x = 441	y = 461
x = 441	y = 461
x = 441	y = 461
x = 440	y = 461
x = 440	y = 461
x = 440	y = 461
x = 440	y = 461
x = 440	y = 461
x = 440	y = 461
x = 440	y = 461
x = 440	y = 461
x = 440	y = 461
x = 440	y = 461
x = 440	y = 461
x = 440	y = 461
x = 440	y = 461
x = 440	y = 461
x = 440	y = 461
x = 440	y = 461
x = 440	y = 461
x = 439	y = 461
x = 439	y = 461
x = 439	y = 461
x = 439	y = 461
x = 439	y = 461
x = 439	y = 461
x = 439	y = 461
x = 439	y = 461
x = 439	y = 461
x = 439	y = 461
x = 439	y = 461
x = 439	y = 463
x = 439	y = 463
x = 439	y = 463
x = 439	y = 463
x = 439	y = 463
x = 439	y = 465
x = 439	y = 465
x = 439	y = 465
x = 439	y = 465
x = 439	y = 465
x = 440	y = 473
x = 440	y = 473
x = 440	y = 473
x = 440	y = 473
x = 440	y = 473
x = 444	y = 490
x = 444	y = 490
x = 444	y = 490
x = 444	y = 490
x = 444	y = 490
x = 444	y = 490
x = 451	y = 515
x = 451	y = 515
x = 451	y = 515
x = 451	y = 515
x = 451	y = 515
x = 451	y = 515
x = 457	y = 534
x = 457	y = 534
x = 457	y = 534
x = 457	y = 534
x = 462	y = 547
x = 462	y = 547
x = 462	y = 547
x = 462	y = 547
x = 462	y = 547
x = 462	y = 547
x = 464	y = 550
x = 464	y = 550
x = 464	y = 550
x = 464	y = 550
x = 464	y = 550
x = 464	y = 550
x = 466	y = 552
x = 466	y = 552
x = 466	y = 552
x = 466	y = 552
x = 466	y = 552
x = 466	y = 552
x = 468	y = 554
x = 468	y = 554
x = 468	y = 554
x = 468	y = 554
x = 468	y = 554
x = 470	y = 556
x = 470	y = 556
x = 470	y = 556
x = 470	y = 556
x = 470	y = 556
x = 473	y = 557
x = 473	y = 557
x = 473	y = 557
x = 473	y = 557
x = 473	y = 557
x = 473	y = 557
x = 487	y = 560
x = 487	y = 560
x = 487	y = 560
x = 487	y = 560
x = 487	y = 560
x = 500	y = 561
x = 500	y = 561
x = 500	y = 561
x = 500	y = 561
x = 500	y = 561
x = 516	y = 561
x = 516	y = 561
x = 516	y = 561
x = 516	y = 561
x = 516	y = 561
x = 516	y = 561
x = 533	y = 561
x = 533	y = 561
x = 533	y = 561
x = 533	y = 561
x = 533	y = 561
x = 550	y = 562
x = 550	y = 562
x = 550	y = 562
x = 550	y = 562
x = 550	y = 562
x = 563	y = 562
x = 563	y = 562
x = 563	y = 562
x = 563	y = 562
x = 563	y = 562
x = 563	y = 562
x = 569	y = 562
x = 569	y = 562
x = 569	y = 562
x = 569	y = 562
x = 569	y = 562
x = 569	y = 562
x = 572	y = 562
x = 572	y = 562
x = 572	y = 562
x = 572	y = 562
x = 572	y = 562
x = 574	y = 562
x = 574	y = 562
x = 574	y = 562
x = 574	y = 562
x = 574	y = 562
x = 577	y = 562
x = 577	y = 562
x = 577	y = 562
x = 577	y = 562
x = 577	y = 562
x = 577	y = 562
x = 579	y = 562
x = 579	y = 562
x = 579	y = 562
x = 579	y = 562
x = 579	y = 562
x = 579	y = 562
x = 581	y = 562
x = 581	y = 562
x = 581	y = 562
x = 581	y = 562
x = 582	y = 562
x = 582	y = 562
x = 582	y = 562
x = 582	y = 562
x = 582	y = 562
x = 582	y = 562
x = 583	y = 562
x = 583	y = 562
x = 583	y = 562
x = 583	y = 562
x = 583	y = 562
x = 583	y = 562
x = 583	y = 561
x = 583	y = 561
x = 583	y = 561
x = 583	y = 561
x = 583	y = 561
x = 584	y = 560
x = 584	y = 560
x = 584	y = 560
x = 584	y = 560
x = 584	y = 560
x = 584	y = 560
x = 585	y = 559
x = 585	y = 559
x = 585	y = 559
x = 585	y = 559
x = 585	y = 559
x = 586	y = 558
x = 586	y = 558
x = 586	y = 558
x = 586	y = 558
x = 586	y = 558
x = 586	y = 558
x = 587	y = 555
x = 587	y = 555
x = 587	y = 555
x = 587	y = 555
x = 587	y = 555
x = 587	y = 555
x = 589	y = 552
x = 589	y = 552
x = 589	y = 552
x = 589	y = 552
x = 589	y = 552
x = 597	y = 539
x = 597	y = 539
x = 597	y = 539
x = 597	y = 539
x = 597	y = 539
x = 604	y = 528
x = 604	y = 528
x = 604	y = 528
x = 604	y = 528
x = 604	y = 528
x = 611	y = 517
x = 611	y = 517
x = 611	y = 517
x = 611	y = 517
x = 611	y = 517
x = 611	y = 517
x = 611	y = 517
x = 616	y = 506
x = 616	y = 506
x = 616	y = 506
x = 616	y = 506
x = 616	y = 506
x = 616	y = 506
x = 619	y = 500
x = 619	y = 500
x = 619	y = 500
x = 619	y = 500
x = 619	y = 500
x = 619	y = 500
x = 620	y = 497
x = 620	y = 497
x = 620	y = 497
x = 620	y = 497
x = 620	y = 497
x = 621	y = 494
x = 621	y = 494
x = 621	y = 494
x = 621	y = 494
x = 621	y = 494
x = 621	y = 494
x = 621	y = 491
x = 621	y = 491
x = 621	y = 491
x = 621	y = 491
x = 621	y = 491
x = 621	y = 491
x = 621	y = 489
x = 621	y = 489
x = 621	y = 489
x = 621	y = 489
x = 621	y = 489
x = 621	y = 488
x = 621	y = 488
x = 621	y = 488
x = 621	y = 488
x = 621	y = 488
x = 620	y = 487
x = 620	y = 487
x = 620	y = 487
x = 620	y = 487
x = 620	y = 487
x = 619	y = 485
x = 619	y = 485
x = 619	y = 485
x = 619	y = 485
x = 619	y = 485
x = 619	y = 485
x = 618	y = 484
x = 618	y = 484
x = 618	y = 484
x = 618	y = 484
x = 618	y = 484
x = 618	y = 484
x = 614	y = 482
x = 614	y = 482
x = 614	y = 482
x = 614	y = 482
x = 614	y = 482
x = 611	y = 480
x = 611	y = 480
x = 611	y = 480
x = 611	y = 480
x = 611	y = 480
x = 608	y = 479
x = 608	y = 479
x = 608	y = 479
x = 608	y = 479
x = 608	y = 479
x = 608	y = 479
x = 606	y = 477
x = 606	y = 477
x = 606	y = 477
x = 606	y = 477
x = 606	y = 477
x = 603	y = 476
x = 603	y = 476
x = 603	y = 476
x = 603	y = 476
x = 603	y = 476
x = 603	y = 476
x = 601	y = 475
x = 601	y = 475
x = 601	y = 475
x = 601	y = 475
x = 601	y = 475
x = 600	y = 474
x = 600	y = 474
x = 600	y = 474
x = 600	y = 474
x = 600	y = 474
x = 600	y = 474
x = 598	y = 474
x = 598	y = 474
x = 598	y = 474
x = 598	y = 474
x = 598	y = 474
x = 595	y = 473
x = 595	y = 473
x = 595	y = 473
x = 595	y = 473
x = 595	y = 473
x = 595	y = 473
x = 579	y = 469
x = 579	y = 469
x = 579	y = 469
x = 579	y = 469
x = 579	y = 469
x = 548	y = 466
x = 548	y = 466
x = 548	y = 466
x = 548	y = 466
x = 548	y = 466
x = 520	y = 465
x = 520	y = 465
x = 520	y = 465
x = 520	y = 465
x = 520	y = 465
x = 506	y = 465
x = 506	y = 465
x = 506	y = 465
x = 506	y = 465
x = 506	y = 465
x = 502	y = 465
x = 502	y = 465
x = 502	y = 465
x = 502	y = 465
x = 502	y = 465
x = 499	y = 465
x = 499	y = 465
x = 499	y = 465
x = 499	y = 465
x = 499	y = 465
x = 499	y = 465
x = 496	y = 465
x = 496	y = 465
x = 496	y = 465
x = 496	y = 465
x = 496	y = 465
x = 494	y = 466
x = 494	y = 466
x = 494	y = 466
x = 494	y = 466
x = 494	y = 466
x = 492	y = 466
x = 492	y = 466
x = 492	y = 466
x = 492	y = 466
x = 492	y = 466
x = 490	y = 468
x = 490	y = 468
x = 490	y = 468
x = 490	y = 468
x = 490	y = 468
x = 490	y = 468
x = 488	y = 469
x = 488	y = 469
x = 488	y = 469
x = 488	y = 469
x = 484	y = 470
x = 484	y = 470
x = 484	y = 470
x = 484	y = 470
x = 484	y = 470
x = 482	y = 471
x = 482	y = 471
x = 482	y = 471
x = 482	y = 471
x = 482	y = 471
x = 482	y = 471
x = 482	y = 471
x = 480	y = 473
x = 480	y = 473
x = 480	y = 473
x = 480	y = 473
x = 480	y = 473
x = 478	y = 474
x = 478	y = 474
x = 478	y = 474
x = 478	y = 474
x = 478	y = 474
x = 476	y = 475
x = 476	y = 475
x = 476	y = 475
x = 476	y = 475
x = 476	y = 475
x = 476	y = 475
x = 475	y = 477
x = 475	y = 477
x = 475	y = 477
x = 475	y = 477
x = 475	y = 477
x = 473	y = 478
x = 473	y = 478
x = 473	y = 478
x = 473	y = 478
x = 473	y = 478
x = 473	y = 478
x = 473	y = 480
x = 473	y = 480
x = 473	y = 480
x = 473	y = 480
x = 473	y = 480
x = 473	y = 480
x = 472	y = 482
x = 472	y = 482
x = 472	y = 482
x = 472	y = 482
x = 472	y = 482
x = 472	y = 484
x = 472	y = 484
x = 472	y = 484
x = 472	y = 484
x = 472	y = 484
x = 472	y = 484
x = 472	y = 487
x = 472	y = 487
x = 472	y = 487
x = 472	y = 487
x = 472	y = 487
x = 472	y = 487
x = 474	y = 500
x = 474	y = 500
x = 474	y = 500
x = 474	y = 500
x = 474	y = 500
x = 484	y = 519
x = 484	y = 519
x = 484	y = 519
x = 484	y = 519
x = 484	y = 519
x = 492	y = 534
x = 492	y = 534
x = 492	y = 534
x = 492	y = 534
x = 492	y = 534
x = 501	y = 544
x = 501	y = 544
x = 501	y = 544
x = 501	y = 544
x = 501	y = 544
x = 501	y = 544
x = 504	y = 547
x = 504	y = 547
x = 504	y = 547
x = 504	y = 547
x = 504	y = 547
x = 513	y = 552
x = 513	y = 552
x = 513	y = 552
x = 513	y = 552
x = 513	y = 552
x = 513	y = 552
x = 521	y = 556
x = 521	y = 556
x = 521	y = 556
x = 521	y = 556
x = 521	y = 556
x = 529	y = 558
x = 529	y = 558
x = 529	y = 558
x = 529	y = 558
x = 529	y = 558
x = 529	y = 558
x = 529	y = 558
x = 534	y = 559
x = 534	y = 559
x = 534	y = 559
x = 534	y = 559
x = 534	y = 559
x = 538	y = 559
x = 538	y = 559
x = 538	y = 559
x = 538	y = 559
x = 538	y = 559
x = 538	y = 559
x = 543	y = 559
x = 543	y = 559
x = 543	y = 559
x = 543	y = 559
x = 543	y = 559
x = 553	y = 559
x = 553	y = 559
x = 553	y = 559
x = 553	y = 559
x = 553	y = 559
x = 568	y = 558
x = 568	y = 558
x = 568	y = 558
x = 568	y = 558
x = 568	y = 558
x = 583	y = 556
x = 583	y = 556
x = 583	y = 556
x = 583	y = 556
x = 583	y = 556
x = 583	y = 556
x = 602	y = 550
x = 602	y = 550
x = 602	y = 550
x = 602	y = 550
x = 602	y = 550
x = 614	y = 544
x = 614	y = 544
x = 614	y = 544
x = 614	y = 544
x = 614	y = 544
x = 614	y = 544
x = 626	y = 537
x = 626	y = 537
x = 626	y = 537
x = 626	y = 537
x = 626	y = 537
x = 636	y = 529
x = 636	y = 529
x = 636	y = 529
x = 636	y = 529
x = 636	y = 529
x = 636	y = 529
x = 644	y = 518
x = 644	y = 518
x = 644	y = 518
x = 644	y = 518
x = 644	y = 518
x = 644	y = 518
x = 651	y = 501
x = 651	y = 501
x = 651	y = 501
x = 651	y = 501
x = 651	y = 501
x = 655	y = 483
x = 655	y = 483
x = 655	y = 483
x = 655	y = 483
x = 655	y = 483
x = 655	y = 483
x = 658	y = 460
x = 658	y = 460
x = 658	y = 460
x = 658	y = 460
x = 658	y = 460
x = 659	y = 440
x = 659	y = 440
x = 659	y = 440
x = 659	y = 440
x = 659	y = 440
x = 661	y = 422
x = 661	y = 422
x = 661	y = 422
x = 661	y = 422
x = 661	y = 422
x = 661	y = 422
x = 662	y = 409
x = 662	y = 409
x = 662	y = 409
x = 662	y = 409
x = 662	y = 409
x = 663	y = 396
x = 663	y = 396
x = 663	y = 396
x = 663	y = 396
x = 663	y = 396
x = 663	y = 396
x = 663	y = 390
x = 663	y = 390
x = 663	y = 390
x = 663	y = 390
x = 663	y = 390
x = 663	y = 386
x = 663	y = 386
x = 663	y = 386
x = 663	y = 386
x = 663	y = 386
x = 663	y = 386
x = 663	y = 383
x = 663	y = 383
x = 663	y = 383
x = 663	y = 383
x = 663	y = 383
x = 663	y = 379
x = 663	y = 379
x = 663	y = 379
x = 663	y = 379
x = 663	y = 379
x = 662	y = 376
x = 662	y = 376
x = 662	y = 376
x = 662	y = 376
x = 662	y = 376
x = 662	y = 376
x = 662	y = 376
x = 656	y = 367
x = 656	y = 367
x = 656	y = 367
x = 656	y = 367
x = 656	y = 367
x = 646	y = 354
x = 646	y = 354
x = 646	y = 354
x = 646	y = 354
x = 646	y = 354
x = 626	y = 339
x = 626	y = 339
x = 626	y = 339
x = 626	y = 339
x = 626	y = 339
x = 626	y = 339
x = 603	y = 326
x = 603	y = 326
x = 603	y = 326
x = 603	y = 326
x = 603	y = 326
x = 582	y = 318
x = 582	y = 318
x = 582	y = 318
x = 582	y = 318
x = 582	y = 318
x = 566	y = 313
x = 566	y = 313
x = 566	y = 313
x = 566	y = 313
x = 566	y = 313
x = 552	y = 310
x = 552	y = 310
x = 552	y = 310
x = 552	y = 310
x = 552	y = 310
x = 540	y = 308
x = 540	y = 308
x = 540	y = 308
x = 540	y = 308
x = 540	y = 308
x = 540	y = 308
x = 527	y = 308
x = 527	y = 308
x = 527	y = 308
x = 527	y = 308
x = 527	y = 308
x = 515	y = 307
x = 515	y = 307
x = 515	y = 307
x = 515	y = 307
x = 515	y = 307
x = 502	y = 307
x = 502	y = 307
